{
  "auth": "cpan:JJATRIA",
  "authors": [
    "José Joaquín Atria"
  ],
  "build-depends": [
  ],
  "depends": [
    "HTTP::Tiny",
    "IO::Socket::SSL:ver<0.0.2>"
  ],
  "description": "A clone of curl written in pure Raku",
  "license": "Artistic-2.0",
  "name": "App::Rakurl",
  "perl": "6.d",
  "provides": {
    "App::Rakurl": "lib/App/Rakurl.rakumod"
  },
  "resources": [
  ],
  "source-url": "https://gitlab.com/jjatria/app-rakurl",
  "support": {
    "source": "git://gitlab.com/jjatria/app-rakurl.git"
  },
  "tags": [
  ],
  "test-depends": [
  ],
  "version": "0.0.1"
}
